com\mycompany\final_maven\fbr\Border.class
com\mycompany\final_maven\fbr\Border$Point.class
com\mycompany\final_maven\swing\Button.class
com\mycompany\final_maven\component\Header.class
com\mycompany\final_maven\form\Form1$1.class
com\mycompany\final_maven\chart\Chart$1.class
com\mycompany\final_maven\form\Form1.class
com\mycompany\final_maven\swing\ButtonOutLine.class
com\mycompany\final_maven\swing\TextFielInForm$1.class
com\mycompany\final_maven\swing\ButtonForm.class
com\mycompany\final_maven\View\DashBoardView$1.class
com\mycompany\final_maven\controller\Form1Controller.class
com\mycompany\final_maven\controller\Form4Controller.class
com\mycompany\final_maven\chart\SeriesSize.class
com\mycompany\final_maven\swing\RippleEffect$Effect$1.class
com\mycompany\final_maven\swing\RippleEffect.class
com\mycompany\final_maven\entity\Test.class
com\mycompany\final_maven\swing\TextFieldAnimation$2.class
com\mycompany\final_maven\swing\TableCell.class
com\mycompany\final_maven\swing\Combobox.class
com\mycompany\final_maven\controller\DashBoardController$ExitListener.class
com\mycompany\final_maven\chart\NiceScale.class
com\mycompany\final_maven\form\Form6.class
com\mycompany\final_maven\swing\ImageAvatar.class
com\mycompany\final_maven\swing\ModernScrollBarUI$InvisibleScrollBarButton.class
com\mycompany\final_maven\component\Menu.class
com\mycompany\final_maven\chart\BlankPlotChart.class
com\mycompany\final_maven\shadow\ShadowRenderer.class
com\mycompany\final_maven\swing\Combobox$ComboUI$2.class
com\mycompany\final_maven\swing\PasswordField.class
com\mycompany\final_maven\chart\BlankPlotChatRender.class
com\mycompany\final_maven\chart\ModelChart.class
com\mycompany\final_maven\chart\ModelLegend.class
com\mycompany\final_maven\View\DashBoardView.class
com\mycompany\final_maven\form\Form3.class
com\mycompany\final_maven\View\DashBoardView$3.class
com\mycompany\final_maven\chart\Chart.class
com\mycompany\final_maven\controller\LoginController$LoginListener.class
com\mycompany\final_maven\swing\Combobox$1.class
com\mycompany\final_maven\swing\MenuItem.class
com\mycompany\final_maven\swing\ScrollBarCustom.class
com\mycompany\final_maven\func\CimeFunc$1.class
com\mycompany\final_maven\swing\Combobox$ComboUI$5.class
com\mycompany\final_maven\swing\TextField$2.class
com\mycompany\final_maven\swing\MenuItem$1.class
com\mycompany\final_maven\func\VisitFunc.class
com\mycompany\final_maven\entity\RegisterToVisitXML.class
com\mycompany\final_maven\component\Menu$1.class
com\mycompany\final_maven\swing\TextFieldAnimation$3.class
com\mycompany\final_maven\event\EventMenuSelected.class
com\mycompany\final_maven\swing\PasswordField$1.class
com\mycompany\final_maven\swing\Combobox$ComboUI$4.class
com\mycompany\final_maven\fbr\FancyBorderRadius.class
com\mycompany\final_maven\swing\EventTextField.class
com\mycompany\final_maven\swing\TextField$1.class
com\mycompany\final_maven\form\Form4.class
com\mycompany\final_maven\swing\TableColumn.class
com\mycompany\final_maven\swing\RippleEffect$Effect.class
com\mycompany\final_maven\swing\ButtonCustom.class
com\mycompany\final_maven\swing\EventCallBack.class
com\mycompany\final_maven\controller\LoginController.class
com\mycompany\final_maven\entity\Prison.class
com\mycompany\final_maven\swing\TextFieldAnimation$4.class
com\mycompany\final_maven\utils\FileUtils.class
com\mycompany\final_maven\func\UserFunc.class
com\mycompany\final_maven\login\Background$2.class
com\mycompany\final_maven\swing\RippleEffect$1.class
com\mycompany\final_maven\chart\LegendItem.class
com\mycompany\final_maven\swing\TextFieldAnimation$1.class
com\mycompany\final_maven\form\Form5.class
com\mycompany\final_maven\swing\TableColumn$1.class
com\mycompany\final_maven\swing\ScrollBar.class
com\mycompany\final_maven\func\CimeFunc$2.class
com\mycompany\final_maven\entity\RegisterToVisit.class
com\mycompany\final_maven\swing\Combobox$ComboUI$6.class
com\mycompany\final_maven\swing\TextFielInForm.class
com\mycompany\final_maven\swing\Combobox$ComboUI.class
com\mycompany\final_maven\form\Form3$1.class
com\mycompany\final_maven\form\Form2.class
com\mycompany\final_maven\swing\Combobox$ComboUI$3.class
com\mycompany\final_maven\func\CimeFunc.class
com\mycompany\final_maven\swing\TextFieldAnimation.class
com\mycompany\final_maven\entity\Employee.class
com\mycompany\final_maven\controller\Form2Controller.class
com\mycompany\final_maven\login\Background$1.class
com\mycompany\final_maven\model\ModelMenu.class
com\mycompany\final_maven\View\DashBoardView$2.class
com\mycompany\final_maven\component\Bottom.class
com\mycompany\final_maven\func\VisitFunc$1.class
com\mycompany\final_maven\controller\DashBoardController.class
com\mycompany\final_maven\swing\ButtonForm$2.class
com\mycompany\final_maven\entity\User.class
com\mycompany\final_maven\swing\PasswordField$2.class
com\mycompany\final_maven\swing\TableCell$CellType.class
com\mycompany\final_maven\View\LoginView.class
com\mycompany\final_maven\shadow\GraphicsUtilities.class
com\mycompany\final_maven\controller\Form5Controller.class
com\mycompany\final_maven\swing\TextFieldAnimation$2$1.class
com\mycompany\final_maven\swing\TextFielInForm$3.class
com\mycompany\final_maven\swing\ModernScrollBarUI.class
com\mycompany\final_maven\controller\Form3Controller.class
com\mycompany\final_maven\fbr\FancyAnimation.class
com\mycompany\final_maven\swing\Combobox$ComboUI$1.class
com\mycompany\final_maven\swing\PanelRound.class
com\mycompany\final_maven\swing\TextField.class
com\mycompany\final_maven\swing\Combobox$ComboUI$ArrowButton.class
com\mycompany\final_maven\login\Background.class
com\mycompany\final_maven\chart\LabelColor.class
com\mycompany\final_maven\swing\ButtonForm$1.class
com\mycompany\final_maven\controller\testController.class
com\mycompany\final_maven\Final_maven.class
com\mycompany\final_maven\swing\TextFielInForm$2.class
com\mycompany\final_maven\entity\Crime.class
